{
	"id": "feb05939-ee36-4f9d-8ee1-a371233f3365",
	"name": "dataiku-qatest-environnement",
	"values": [
		{
			"key": "server",
			"value": "",
			"enabled": true
		},
		{
			"key": "username",
			"value": "",
			"enabled": true
		},
		{
			"key": "password",
			"value": "",
			"enabled": true
		},
		{
			"key": "token",
			"value": "",
			"enabled": true
		},
		{
			"key": "randomNameTask",
			"value": "",
			"enabled": true
		},
		{
			"key": "usernameTest",
			"value": "",
			"enabled": true
		},
		{
			"key": "passwordTest",
			"value": "",
			"enabled": true
		}
	],
	"_postman_variable_scope": "environment",
	"_postman_exported_at": "2022-01-27T15:34:08.786Z",
	"_postman_exported_using": "Postman/9.1.4"
}